415726,
419032,
413491,
489918,
524337,
545749,
545756,
549139,
400344,
410608,
411507,
412174,
414709,
415417,
415557,
419310,
430572,
438864,
479124,
480213,
486236,
517805,
529107,
529115,
529149,
546630,
552234,
552851,
426692,
468836,
468838,
514759,
545534,
546064,
400871,
406010,
407011,
408606,
408681,
409184,
409444,
411260,
413176,
416167,
418420,
420602,
423560,
423831,
423841,
424143,
424237,
425227,
432764,
437823,
438210,
440964,
442944,
442971,
442980,
442991,
444272,
447159,
452276,
452464,
453018,
453020,
463240,
466600,
478210,
482098,
482099,
484554,
530849,
542256,
546133,
549292,
549636,
433628,
511174,
511180,
511361,
511368,
511377,
511388,
511413,
511418,
511432,
511565,
521134,
551686,
539682,
546628,
407441,
407444,
407707,
412800,
414711,
442813,
480151,
480152,
480156,
511455,
511457,
512107,
515735,
518752,
522338,
526218,
526219,
526222,
526223,
526225,
526226,
526227,
526229,
536219,
539652,
539655,
539680,
539880,
540302,
540385,
541065,
541242,
542418,
546613,
546616,
549113,
558828,
558832,
438972,
443589,
445785,
408104,
464705,
464706,
510587,
510702,
510896,
510985,
511028,
511930,
511941,
514204,
514783,
514793,
514982,
515164,
516410,
531878,
531896,
532496,
532550,
539804,
544205,
544713,
545313,
545930,
546060,
546196,
550787,
550803,
550827,
550863,
551057,
551068,
551287,
551306,
551310,
551324,
551338,
551545,
551572,
551627,
551831,
551995,
553879,
553929,
557552,
511271,
511786,
428703,
440927,
442939,
452977,
477748,
429819,
441297,
441840,
441844,
498865,
521611,
541117,
445100,
445101,
445102,
445115,
465345,
411870,
433477,
491239,
466304,
466306,
466309,
473068,
512025,
515597,
515599,
515625,
517669,
519360,
520094,
520101,
520118,
520602,
540633,
540707,
540791,
540801,
543328,
543701,
543703,
543857,
544045,
545800,
546641,
548042,
548897,
548955,
549109,
549110,
552030,
552318,
552319,
544368,
510805,
521105,
423651,
405385,
407057,
448110,
498879,
400022,
403216,
406041,
406095,
422311,
433299,
514022,
420064,
447753,
448104,
511298,
550325,
550743,
550860,
551093,
551291,
551316,
551814,
518127,
522879,
473909,
473910,
475643,
482002,
510297,
511195,
515248,
515254,
530889,
540219,
540723,
546162,
546386,
551056,
551215,
551384,
551945,
514215,
515395,
449449,
420973,
477869,
546213,
461098,
461100,
510277,
510371,
510392,
510864,
514170,
514270,
514368,
531892,
532537,
545432,
546168,
546199,
550830,
550932,
550934,
550937,
550985,
551007,
551044,
551144,
551672,
551703,
551947,
553701,
553710,
554316,
402047,
404657,
409119,
412278,
432739,
427088,
482057,
407212,
448848,
451805,
548190,
552393,
519667,
546540,
557621,
447971,
447972,
447973,
476164,
476165,
401777,
402944,
408540,
418221,
432855,
448275,
449163,
467546,
479213,
483950,
484738,
405364,
426628,
435557,
510982,
543805,
546528,
551964,
553799,
482850,
482853,
482854,
482855,
482857,
482862,
482863,
491790,
425907,
432359,
443113,
475860,
425808,
425828,
425838,
438879,
468018,
480965,
